{
  "count": 9479,
  "meta": { "page": 1, "page_size": 10, "pages": 948.0 },
  "next": "https://cc.lib.ou.edu/api/queue/usertasks/?page=2&page_size=10",
  "previous": null,
  "results": [
    {
      "task_id": "ced40b2f-cc26-4d2f-beab-37288bbb9dea",
      "tags": [],
      "timestamp": "2020-02-20T18:15:15.668",
      "args": [],
      "queue": "celery",
      "user": "tdp",
      "task_name": "emailq.tasks.tasks.sendmail",
      "kwargs": {
        "body": [
          [
            "Lyell_1845",
            "This bag has been blacklisted and has not been processed"
          ],
          [
            "Mancini_1670",
            "This bag has been blacklisted and has not been processed"
          ],
          [
            "Scrope_1825",
            "This bag has been blacklisted and has not been processed"
          ],
          [
            "Cesi_1637",
            "This bag has been blacklisted and has not been processed"
          ],
          [
            "Scrope_1825_ver2",
            "This bag has been blacklisted and has not been processed"
          ]
        ],
        "to": "tdpearson@ou.edu",
        "subject": "Generate Derivative"
      },
      "result": "https://cc.lib.ou.edu/api/queue/task/ced40b2f-cc26-4d2f-beab-37288bbb9dea/"
    },
    {
      "task_id": "7acef3c0-6e9c-43d8-a152-5a9da55e4c78",
      "tags": [],
      "timestamp": "2020-02-20T12:15:12.418",
      "args": [],
      "queue": "celery",
      "user": "tdp",
      "task_name": "emailq.tasks.tasks.sendmail",
      "kwargs": {
        "body": [
          [
            "Mancini_1670",
            "This bag has been blacklisted and has not been processed"
          ],
          [
            "Scrope_1825_ver2",
            "This bag has been blacklisted and has not been processed"
          ],
          [
            "Scrope_1825",
            "This bag has been blacklisted and has not been processed"
          ],
          [
            "Lyell_1845",
            "This bag has been blacklisted and has not been processed"
          ],
          [
            "Cesi_1637",
            "This bag has been blacklisted and has not been processed"
          ]
        ],
        "to": "tdpearson@ou.edu",
        "subject": "Generate Derivative"
      },
      "result": "https://cc.lib.ou.edu/api/queue/task/7acef3c0-6e9c-43d8-a152-5a9da55e4c78/"
    },
    {
      "task_id": "fcdee7cb-c30c-441f-997f-f1472890c9ff",
      "tags": [],
      "timestamp": "2020-02-20T06:15:15.276",
      "args": [],
      "queue": "celery",
      "user": "tdp",
      "task_name": "emailq.tasks.tasks.sendmail",
      "kwargs": {
        "body": [
          [
            "Cesi_1637",
            "This bag has been blacklisted and has not been processed"
          ],
          [
            "Scrope_1825",
            "This bag has been blacklisted and has not been processed"
          ],
          [
            "Lyell_1845",
            "This bag has been blacklisted and has not been processed"
          ],
          [
            "Scrope_1825_ver2",
            "This bag has been blacklisted and has not been processed"
          ],
          [
            "Mancini_1670",
            "This bag has been blacklisted and has not been processed"
          ]
        ],
        "to": "tdpearson@ou.edu",
        "subject": "Generate Derivative"
      },
      "result": "https://cc.lib.ou.edu/api/queue/task/fcdee7cb-c30c-441f-997f-f1472890c9ff/"
    },
    {
      "task_id": "03965374-4ec6-43b8-b968-4f59c5fbfc55",
      "tags": [],
      "timestamp": "2020-02-20T00:15:41.378",
      "args": [],
      "queue": "celery",
      "user": "tdp",
      "task_name": "emailq.tasks.tasks.sendmail",
      "kwargs": {
        "body": [
          [
            "Cesi_1637",
            "This bag has been blacklisted and has not been processed"
          ],
          [
            "Lyell_1845",
            "This bag has been blacklisted and has not been processed"
          ],
          [
            "Mancini_1670",
            "This bag has been blacklisted and has not been processed"
          ],
          [
            "Scrope_1825",
            "This bag has been blacklisted and has not been processed"
          ],
          [
            "Scrope_1825_ver2",
            "This bag has been blacklisted and has not been processed"
          ]
        ],
        "to": "tdpearson@ou.edu",
        "subject": "Generate Derivative"
      },
      "result": "https://cc.lib.ou.edu/api/queue/task/03965374-4ec6-43b8-b968-4f59c5fbfc55/"
    },
    {
      "task_id": "32975f1c-eeee-4417-a549-f3f27b31a5f7",
      "tags": [],
      "timestamp": "2020-02-19T18:15:20.463",
      "args": [],
      "queue": "celery",
      "user": "tdp",
      "task_name": "emailq.tasks.tasks.sendmail",
      "kwargs": {
        "body": [
          [
            "Cesi_1637",
            "This bag has been blacklisted and has not been processed"
          ],
          [
            "Scrope_1825_ver2",
            "This bag has been blacklisted and has not been processed"
          ],
          [
            "Mancini_1670",
            "This bag has been blacklisted and has not been processed"
          ],
          [
            "Lyell_1845",
            "This bag has been blacklisted and has not been processed"
          ],
          [
            "Scrope_1825",
            "This bag has been blacklisted and has not been processed"
          ]
        ],
        "to": "tdpearson@ou.edu",
        "subject": "Generate Derivative"
      },
      "result": "https://cc.lib.ou.edu/api/queue/task/32975f1c-eeee-4417-a549-f3f27b31a5f7/"
    },
    {
      "task_id": "7005f848-06ee-493e-99c1-a96c896c8c7e",
      "tags": [],
      "timestamp": "2020-02-19T12:15:20.042",
      "args": [],
      "queue": "celery",
      "user": "tdp",
      "task_name": "emailq.tasks.tasks.sendmail",
      "kwargs": {
        "body": [
          [
            "Scrope_1825",
            "This bag has been blacklisted and has not been processed"
          ],
          [
            "Scrope_1825_ver2",
            "This bag has been blacklisted and has not been processed"
          ],
          [
            "Mancini_1670",
            "This bag has been blacklisted and has not been processed"
          ],
          [
            "Cesi_1637",
            "This bag has been blacklisted and has not been processed"
          ],
          [
            "Lyell_1845",
            "This bag has been blacklisted and has not been processed"
          ]
        ],
        "to": "tdpearson@ou.edu",
        "subject": "Generate Derivative"
      },
      "result": "https://cc.lib.ou.edu/api/queue/task/7005f848-06ee-493e-99c1-a96c896c8c7e/"
    },
    {
      "task_id": "1e86d5fb-7a47-4287-86fa-2ce2a1aba8ca",
      "tags": [],
      "timestamp": "2020-02-19T06:15:12.713",
      "args": [],
      "queue": "celery",
      "user": "tdp",
      "task_name": "emailq.tasks.tasks.sendmail",
      "kwargs": {
        "body": [
          [
            "Mancini_1670",
            "This bag has been blacklisted and has not been processed"
          ],
          [
            "Cesi_1637",
            "This bag has been blacklisted and has not been processed"
          ],
          [
            "Scrope_1825",
            "This bag has been blacklisted and has not been processed"
          ],
          [
            "Lyell_1845",
            "This bag has been blacklisted and has not been processed"
          ],
          [
            "Scrope_1825_ver2",
            "This bag has been blacklisted and has not been processed"
          ]
        ],
        "to": "tdpearson@ou.edu",
        "subject": "Generate Derivative"
      },
      "result": "https://cc.lib.ou.edu/api/queue/task/1e86d5fb-7a47-4287-86fa-2ce2a1aba8ca/"
    },
    {
      "task_id": "d2816da1-59da-4e4a-8ab0-8eaa788c5742",
      "tags": [],
      "timestamp": "2020-02-19T00:15:14.056",
      "args": [],
      "queue": "celery",
      "user": "tdp",
      "task_name": "emailq.tasks.tasks.sendmail",
      "kwargs": {
        "body": [
          [
            "Scrope_1825",
            "This bag has been blacklisted and has not been processed"
          ],
          [
            "Cesi_1637",
            "This bag has been blacklisted and has not been processed"
          ],
          [
            "Scrope_1825_ver2",
            "This bag has been blacklisted and has not been processed"
          ],
          [
            "Mancini_1670",
            "This bag has been blacklisted and has not been processed"
          ],
          [
            "Lyell_1845",
            "This bag has been blacklisted and has not been processed"
          ]
        ],
        "to": "tdpearson@ou.edu",
        "subject": "Generate Derivative"
      },
      "result": "https://cc.lib.ou.edu/api/queue/task/d2816da1-59da-4e4a-8ab0-8eaa788c5742/"
    },
    {
      "task_id": "2c56d0c3-9ba6-47b0-bae4-e35c9dabaa25",
      "tags": [],
      "timestamp": "2020-02-18T18:15:10.767",
      "args": [],
      "queue": "celery",
      "user": "tdp",
      "task_name": "emailq.tasks.tasks.sendmail",
      "kwargs": {
        "body": [
          [
            "Scrope_1825_ver2",
            "This bag has been blacklisted and has not been processed"
          ],
          [
            "Mancini_1670",
            "This bag has been blacklisted and has not been processed"
          ],
          [
            "Scrope_1825",
            "This bag has been blacklisted and has not been processed"
          ],
          [
            "Cesi_1637",
            "This bag has been blacklisted and has not been processed"
          ],
          [
            "Lyell_1845",
            "This bag has been blacklisted and has not been processed"
          ]
        ],
        "to": "tdpearson@ou.edu",
        "subject": "Generate Derivative"
      },
      "result": "https://cc.lib.ou.edu/api/queue/task/2c56d0c3-9ba6-47b0-bae4-e35c9dabaa25/"
    },
    {
      "task_id": "c356ad53-a05f-4c9d-81b3-dd5e9e24fe54",
      "tags": [],
      "timestamp": "2020-02-18T12:15:14.963",
      "args": [],
      "queue": "celery",
      "user": "tdp",
      "task_name": "emailq.tasks.tasks.sendmail",
      "kwargs": {
        "body": [
          [
            "Scrope_1825_ver2",
            "This bag has been blacklisted and has not been processed"
          ],
          [
            "Scrope_1825",
            "This bag has been blacklisted and has not been processed"
          ],
          [
            "Mancini_1670",
            "This bag has been blacklisted and has not been processed"
          ],
          [
            "Lyell_1845",
            "This bag has been blacklisted and has not been processed"
          ],
          [
            "Cesi_1637",
            "This bag has been blacklisted and has not been processed"
          ]
        ],
        "to": "tdpearson@ou.edu",
        "subject": "Generate Derivative"
      },
      "result": "https://cc.lib.ou.edu/api/queue/task/c356ad53-a05f-4c9d-81b3-dd5e9e24fe54/"
    }
  ]
}
